%!PS-Adobe-2.0 EPSF-2.0
%%Title: cad_tool_flow.eps
%%Creator: fig2dev Version 3.2 Patchlevel 3d
%%CreationDate: Thu Oct 16 13:09:26 2003
%%For: fpga@mosiah.ece.gatech.edu (FPGA)
%%BoundingBox: 0 0 647 521
%%Magnification: 1.0000
%%EndComments
/$F2psDict 200 dict def
$F2psDict begin
$F2psDict /mtrx matrix put
/col-1 {0 setgray} bind def
/col0 {0.000 0.000 0.000 srgb} bind def
/col1 {0.000 0.000 1.000 srgb} bind def
/col2 {0.000 1.000 0.000 srgb} bind def
/col3 {0.000 1.000 1.000 srgb} bind def
/col4 {1.000 0.000 0.000 srgb} bind def
/col5 {1.000 0.000 1.000 srgb} bind def
/col6 {1.000 1.000 0.000 srgb} bind def
/col7 {1.000 1.000 1.000 srgb} bind def
/col8 {0.000 0.000 0.560 srgb} bind def
/col9 {0.000 0.000 0.690 srgb} bind def
/col10 {0.000 0.000 0.820 srgb} bind def
/col11 {0.530 0.810 1.000 srgb} bind def
/col12 {0.000 0.560 0.000 srgb} bind def
/col13 {0.000 0.690 0.000 srgb} bind def
/col14 {0.000 0.820 0.000 srgb} bind def
/col15 {0.000 0.560 0.560 srgb} bind def
/col16 {0.000 0.690 0.690 srgb} bind def
/col17 {0.000 0.820 0.820 srgb} bind def
/col18 {0.560 0.000 0.000 srgb} bind def
/col19 {0.690 0.000 0.000 srgb} bind def
/col20 {0.820 0.000 0.000 srgb} bind def
/col21 {0.560 0.000 0.560 srgb} bind def
/col22 {0.690 0.000 0.690 srgb} bind def
/col23 {0.820 0.000 0.820 srgb} bind def
/col24 {0.500 0.190 0.000 srgb} bind def
/col25 {0.630 0.250 0.000 srgb} bind def
/col26 {0.750 0.380 0.000 srgb} bind def
/col27 {1.000 0.500 0.500 srgb} bind def
/col28 {1.000 0.630 0.630 srgb} bind def
/col29 {1.000 0.750 0.750 srgb} bind def
/col30 {1.000 0.880 0.880 srgb} bind def
/col31 {1.000 0.840 0.000 srgb} bind def

end
save
newpath 0 521 moveto 0 0 lineto 647 0 lineto 647 521 lineto closepath clip newpath
-22.0 532.3 translate
1 -1 scale

/cp {closepath} bind def
/ef {eofill} bind def
/gr {grestore} bind def
/gs {gsave} bind def
/sa {save} bind def
/rs {restore} bind def
/l {lineto} bind def
/m {moveto} bind def
/rm {rmoveto} bind def
/n {newpath} bind def
/s {stroke} bind def
/sh {show} bind def
/slc {setlinecap} bind def
/slj {setlinejoin} bind def
/slw {setlinewidth} bind def
/srgb {setrgbcolor} bind def
/rot {rotate} bind def
/sc {scale} bind def
/sd {setdash} bind def
/ff {findfont} bind def
/sf {setfont} bind def
/scf {scalefont} bind def
/sw {stringwidth} bind def
/tr {translate} bind def
/tnt {dup dup currentrgbcolor
  4 -2 roll dup 1 exch sub 3 -1 roll mul add
  4 -2 roll dup 1 exch sub 3 -1 roll mul add
  4 -2 roll dup 1 exch sub 3 -1 roll mul add srgb}
  bind def
/shd {dup dup currentrgbcolor 4 -2 roll mul 4 -2 roll mul
  4 -2 roll mul srgb} bind def
/$F2psBegin {$F2psDict begin /$F2psEnteredState save def} def
/$F2psEnd {$F2psEnteredState restore end} def

$F2psBegin
10 setmiterlimit
 0.06000 0.06000 sc
%
% Fig objects follow
%
% Polyline
2 slj
7.500 slw
 [60] 0 sd
n 750 7575 m 796 7684 l 844 7787 l 894 7884 l 945 7975 l 996 8059 l
 1048 8138 l 1100 8210 l 1151 8276 l 1201 8336 l 1250 8391 l
 1297 8440 l 1343 8483 l 1388 8522 l 1431 8556 l 1473 8586 l
 1513 8611 l 1552 8633 l 1589 8652 l 1624 8667 l 1659 8680 l
 1692 8690 l 1725 8698 l 1756 8704 l 1787 8708 l 1817 8711 l
 1847 8712 l 1877 8713 l 1906 8712 l 1936 8711 l 1966 8710 l
 1996 8708 l 2027 8706 l 2059 8704 l 2091 8702 l 2125 8701 l
 2160 8699 l 2196 8698 l 2235 8698 l 2274 8698 l 2316 8698 l
 2359 8700 l 2405 8701 l 2453 8703 l 2502 8706 l 2554 8709 l
 2608 8712 l 2665 8715 l 2723 8719 l 2783 8721 l 2844 8723 l
 2907 8724 l 2970 8724 l 3035 8722 l 3099 8717 l 3163 8710 l
 3225 8700 l 3298 8683 l 3368 8661 l 3434 8636 l 3495 8608 l
 3551 8578 l 3602 8547 l 3648 8516 l 3689 8485 l 3725 8454 l
 3757 8423 l 3784 8394 l 3806 8366 l 3825 8338 l 3841 8312 l
 3853 8287 l 3862 8263 l 3869 8240 l 3873 8218 l 3876 8197 l
 3877 8175 l 3877 8155 l 3876 8134 l 3875 8112 l 3873 8091 l
 3872 8068 l 3870 8045 l 3869 8020 l 3869 7993 l 3871 7964 l
 3873 7933 l 3877 7899 l 3883 7862 l 3891 7822 l 3901 7778 l
 3914 7729 l 3928 7677 l 3946 7620 l 3966 7558 l 3989 7492 l
 4014 7420 l 4041 7344 l 4071 7263 l 4102 7177 l 4134 7088 l
 4167 6995 l 4200 6900 l 4230 6811 l 4258 6722 l 4286 6634 l
 4313 6548 l 4338 6465 l 4362 6385 l 4385 6308 l 4407 6236 l
 4428 6168 l 4447 6105 l 4466 6046 l 4483 5992 l 4500 5941 l
 4515 5895 l 4530 5853 l 4544 5814 l 4557 5778 l 4569 5745 l
 4581 5715 l 4593 5687 l 4604 5661 l 4614 5637 l 4624 5613 l
 4634 5591 l 4644 5569 l 4653 5547 l 4662 5524 l 4671 5501 l
 4680 5477 l 4688 5451 l 4696 5423 l 4704 5394 l 4712 5361 l
 4720 5326 l 4727 5288 l 4734 5246 l 4740 5201 l 4746 5152 l
 4751 5099 l 4756 5041 l 4759 4979 l 4762 4913 l 4763 4843 l
 4764 4770 l 4762 4692 l 4759 4612 l 4754 4529 l 4747 4445 l
 4737 4360 l 4725 4275 l 4708 4181 l 4688 4090 l 4666 4004 l
 4642 3923 l 4618 3848 l 4592 3780 l 4567 3718 l 4541 3662 l
 4516 3613 l 4492 3569 l 4467 3532 l 4444 3500 l 4422 3473 l
 4400 3451 l 4379 3433 l 4358 3419 l 4338 3408 l 4319 3399 l
 4300 3393 l 4281 3388 l 4263 3384 l 4244 3381 l 4225 3379 l
 4205 3376 l 4185 3372 l 4165 3367 l 4143 3360 l 4121 3351 l
 4097 3340 l 4071 3326 l 4045 3308 l 4016 3287 l 3985 3261 l
 3953 3232 l 3918 3197 l 3881 3159 l 3843 3115 l 3802 3066 l
 3759 3013 l 3714 2956 l 3668 2896 l 3621 2832 l 3573 2766 l
 3525 2700 l 3473 2627 l 3423 2556 l 3376 2487 l 3332 2422 l
 3292 2359 l 3257 2300 l 3226 2245 l 3199 2194 l 3177 2147 l
 3159 2103 l 3144 2062 l 3134 2024 l 3126 1990 l 3122 1957 l
 3120 1927 l 3120 1899 l 3121 1873 l 3124 1848 l 3127 1823 l
 3131 1800 l 3135 1777 l 3138 1754 l 3140 1732 l 3141 1709 l
 3140 1686 l 3136 1663 l 3129 1639 l 3119 1614 l 3105 1589 l
 3088 1563 l 3065 1537 l 3037 1511 l 3004 1484 l 2966 1459 l
 2922 1434 l 2872 1411 l 2817 1390 l 2757 1372 l 2693 1359 l
 2625 1350 l 2571 1347 l 2516 1348 l 2461 1350 l 2407 1355 l
 2353 1361 l 2301 1367 l 2250 1374 l 2200 1380 l 2153 1386 l
 2108 1392 l 2064 1397 l 2023 1401 l 1984 1404 l 1947 1406 l
 1911 1407 l 1878 1407 l 1846 1406 l 1816 1405 l 1787 1402 l
 1760 1399 l 1733 1395 l 1708 1391 l 1683 1387 l 1659 1383 l
 1636 1379 l 1612 1375 l 1589 1372 l 1566 1370 l 1542 1370 l
 1519 1371 l 1494 1373 l 1469 1378 l 1443 1386 l 1416 1396 l
 1388 1409 l 1359 1426 l 1328 1447 l 1296 1473 l 1263 1503 l
 1228 1538 l 1192 1579 l 1155 1626 l 1116 1679 l 1076 1738 l
 1035 1805 l 994 1879 l 951 1960 l 909 2049 l 868 2145 l
 827 2248 l 787 2358 l 750 2475 l 724 2565 l 699 2658 l
 676 2753 l 655 2849 l 635 2945 l 616 3041 l 598 3137 l
 581 3232 l 566 3325 l 552 3417 l 538 3507 l 526 3595 l
 514 3680 l 504 3763 l 494 3844 l 484 3922 l 476 3998 l
 468 4071 l 460 4141 l 453 4210 l 446 4275 l 440 4339 l
 434 4400 l 429 4460 l 424 4517 l 419 4573 l 415 4628 l
 410 4680 l 406 4732 l 403 4782 l 399 4832 l 396 4881 l
 393 4929 l 390 4977 l 387 5025 l 385 5073 l 383 5121 l
 382 5169 l 380 5218 l 379 5268 l 379 5318 l 378 5370 l
 378 5422 l 379 5477 l 380 5533 l 382 5590 l 384 5650 l
 387 5711 l 390 5775 l 395 5840 l 400 5909 l 406 5979 l
 413 6052 l 421 6128 l 430 6206 l 440 6287 l 452 6370 l
 464 6455 l 479 6543 l 494 6633 l 512 6725 l 531 6818 l
 552 6913 l 574 7009 l 598 7105 l 625 7201 l 653 7297 l
 683 7392 l 716 7485 l
 cp gs col7 0.90 shd ef gr gs col0 s gr  [] 0 sd
/Times-BoldItalic ff 210.00 scf sf
450 5250 m
gs 1 -1 sc (FPGA Tool Flow) col0 sh gr
/Times-BoldItalic ff 210.00 scf sf
450 5025 m
gs 1 -1 sc (Traditional) col0 sh gr
/Times-Bold ff 210.00 scf sf
5325 450 m
gs 1 -1 sc (Hardware) col0 sh gr
/Times-Bold ff 210.00 scf sf
5325 675 m
gs 1 -1 sc (Design) col0 sh gr
/Times-Bold ff 210.00 scf sf
6525 675 m
gs 1 -1 sc (Design) col0 sh gr
/Times-Bold ff 210.00 scf sf
6525 450 m
gs 1 -1 sc (Software) col0 sh gr
% Polyline
0 slj
n 3675 1650 m 5475 1650 l 5475 2850 l 3675 2850 l
 cp gs col7 1.00 shd ef gr gs col0 s gr 
% Polyline
n 1275 1650 m 3075 1650 l 3075 2850 l 1275 2850 l
 cp gs col7 1.00 shd ef gr gs col0 s gr 
% Polyline
n 2475 3450 m 4275 3450 l 4275 4650 l 2475 4650 l
 cp gs col7 1.00 shd ef gr gs col0 s gr 
% Polyline
n 2475 5250 m 4275 5250 l 4275 6450 l 2475 6450 l
 cp gs col7 1.00 shd ef gr gs col0 s gr 
% Polyline
n 1575 7050 m 5175 7050 l 5175 8550 l 1575 8550 l
 cp gs col7 1.00 shd ef gr gs col0 s gr 
% Polyline
n 6975 3450 m 8775 3450 l 8775 4650 l 6975 4650 l
 cp gs col7 1.00 shd ef gr gs col0 s gr 
/Times-Roman ff 210.00 scf sf
2175 2175 m
gs 1 -1 sc (Design Entry) dup sw pop 2 div neg 0 rm  col0 sh gr
/Times-Roman ff 210.00 scf sf
2175 2430 m
gs 1 -1 sc (Tool) dup sw pop 2 div neg 0 rm  col0 sh gr
/Times-Roman ff 210.00 scf sf
4650 2100 m
gs 1 -1 sc (Processor Core) dup sw pop 2 div neg 0 rm  col0 sh gr
/Times-Roman ff 210.00 scf sf
4650 2355 m
gs 1 -1 sc (Configuration) dup sw pop 2 div neg 0 rm  col0 sh gr
/Times-Roman ff 210.00 scf sf
4650 2610 m
gs 1 -1 sc (Tool) dup sw pop 2 div neg 0 rm  col0 sh gr
/Times-Roman ff 210.00 scf sf
3375 5700 m
gs 1 -1 sc (FPGA) dup sw pop 2 div neg 0 rm  col0 sh gr
/Times-Roman ff 210.00 scf sf
3375 5955 m
gs 1 -1 sc (Place & Route) dup sw pop 2 div neg 0 rm  col0 sh gr
/Times-Roman ff 210.00 scf sf
3375 6210 m
gs 1 -1 sc (Tool) dup sw pop 2 div neg 0 rm  col0 sh gr
/Times-Roman ff 210.00 scf sf
2550 7575 m
gs 1 -1 sc (Program FPGA) dup sw pop 2 div neg 0 rm  col0 sh gr
/Times-Roman ff 210.00 scf sf
2550 7830 m
gs 1 -1 sc (and) dup sw pop 2 div neg 0 rm  col0 sh gr
/Times-Roman ff 210.00 scf sf
2550 8085 m
gs 1 -1 sc (Initialize Memory) dup sw pop 2 div neg 0 rm  col0 sh gr
/Times-Italic ff 210.00 scf sf
9450 3825 m
gs 1 -1 sc (Operating System) col0 sh gr
/Times-Italic ff 210.00 scf sf
9450 4080 m
gs 1 -1 sc (Kernel & Libraries) col0 sh gr
/Times-Italic ff 210.00 scf sf
9450 4335 m
gs 1 -1 sc (\(optional\)) col0 sh gr
/Times-Italic ff 210.00 scf sf
2175 450 m
gs 1 -1 sc (Additional) dup sw pop 2 div neg 0 rm  col0 sh gr
/Times-Italic ff 210.00 scf sf
2175 705 m
gs 1 -1 sc (User Hardware) dup sw pop 2 div neg 0 rm  col0 sh gr
/Times-Italic ff 210.00 scf sf
2175 960 m
gs 1 -1 sc (\(optional\)) dup sw pop 2 div neg 0 rm  col0 sh gr
% Polyline
gs  clippath
2145 1665 m 2205 1665 l 2205 1554 l 2175 1629 l 2145 1554 l cp
eoclip
n 2175 1050 m
 2175 1650 l gs col0 s gr gr

% arrowhead
15.000 slw
n 2145 1554 m 2175 1629 l 2205 1554 l 2175 1569 l 2145 1554 l 
 cp gs 0.00 setgray ef gr  col0 s
% Polyline
7.500 slw
gs  clippath
3345 5265 m 3405 5265 l 3405 5154 l 3375 5229 l 3345 5154 l cp
eoclip
n 3375 4650 m
 3375 5250 l gs col0 s gr gr

% arrowhead
15.000 slw
n 3345 5154 m 3375 5229 l 3405 5154 l 3375 5169 l 3345 5154 l 
 cp gs 0.00 setgray ef gr  col0 s
% Polyline
7.500 slw
gs  clippath
3045 3465 m 3105 3465 l 3105 3354 l 3075 3429 l 3045 3354 l cp
eoclip
n 2175 2850 m 2175 3150 l 3075 3150 l
 3075 3450 l gs col0 s gr gr

% arrowhead
15.000 slw
n 3045 3354 m 3075 3429 l 3105 3354 l 3075 3369 l 3045 3354 l 
 cp gs 0.00 setgray ef gr  col0 s
% Polyline
7.500 slw
gs  clippath
3645 3465 m 3705 3465 l 3705 3354 l 3675 3429 l 3645 3354 l cp
eoclip
n 4575 2850 m 4575 3150 l 3675 3150 l
 3675 3450 l gs col0 s gr gr

% arrowhead
15.000 slw
n 3645 3354 m 3675 3429 l 3705 3354 l 3675 3369 l 3645 3354 l 
 cp gs 0.00 setgray ef gr  col0 s
% Polyline
7.500 slw
gs  clippath
3345 7065 m 3405 7065 l 3405 6954 l 3375 7029 l 3345 6954 l cp
eoclip
n 3375 6450 m
 3375 7050 l gs col0 s gr gr

% arrowhead
15.000 slw
n 3345 6954 m 3375 7029 l 3405 6954 l 3375 6969 l 3345 6954 l 
 cp gs 0.00 setgray ef gr  col0 s
% Polyline
7.500 slw
gs  clippath
4935 8145 m 4935 8205 l 5046 8205 l 4971 8175 l 5046 8145 l cp
eoclip
n 7875 4650 m 7875 8175 l
 4950 8175 l gs col0 s gr gr

% arrowhead
15.000 slw
n 5046 8145 m 4971 8175 l 5046 8205 l 5031 8175 l 5046 8145 l 
 cp gs 0.00 setgray ef gr  col0 s
% Polyline
7.500 slw
n 4050 8025 m 4950 8025 l 4950 8325 l 4050 8325 l
 cp gs col0 s gr 
% Polyline
n 4050 7350 m 4950 7350 l 4950 7800 l 4050 7800 l
 cp gs col0 s gr 
% Polyline
gs  clippath
6990 4080 m 6990 4020 l 6879 4020 l 6954 4050 l 6879 4080 l cp
eoclip
n 5475 2250 m 5775 2250 l 5775 4050 l
 6975 4050 l gs col0 s gr gr

% arrowhead
15.000 slw
n 6879 4080 m 6954 4050 l 6879 4020 l 6894 4050 l 6879 4080 l 
 cp gs 0.00 setgray ef gr  col0 s
% Polyline
7.500 slw
gs  clippath
7845 3465 m 7905 3465 l 7905 3354 l 7875 3429 l 7845 3354 l cp
eoclip
n 7875 2850 m
 7875 3450 l gs col0 s gr gr

% arrowhead
15.000 slw
n 7845 3354 m 7875 3429 l 7905 3354 l 7875 3369 l 7845 3354 l 
 cp gs 0.00 setgray ef gr  col0 s
% Polyline
7.500 slw
gs  clippath
8760 4020 m 8760 4080 l 8871 4080 l 8796 4050 l 8871 4020 l cp
eoclip
n 9375 4050 m
 8775 4050 l gs col0 s gr gr

% arrowhead
15.000 slw
n 8871 4020 m 8796 4050 l 8871 4080 l 8856 4050 l 8871 4020 l 
 cp gs 0.00 setgray ef gr  col0 s
% Polyline
7.500 slw
n 3900 7350 m 3450 7350 l 3450 8325 l 3900 8325 l
 cp gs col0 s gr 
% Polyline
 [15 45] 45 sd
gs  clippath
4470 7365 m 4530 7365 l 4530 7272 l 4500 7332 l 4470 7272 l cp
eoclip
n 3375 7050 m 3375 7125 l 4500 7125 l
 4500 7350 l gs col0 s gr gr
 [] 0 sd
% arrowhead
15.000 slw
n 4470 7272 m 4500 7332 l 4530 7272 l  col0 s
% Polyline
7.500 slw
 [15 45] 45 sd
gs  clippath
3645 7365 m 3705 7365 l 3705 7272 l 3675 7332 l 3645 7272 l cp
eoclip
n 3675 7125 m
 3675 7350 l gs col0 s gr gr
 [] 0 sd
% arrowhead
15.000 slw
n 3645 7272 m 3675 7332 l 3705 7272 l  col0 s
% Polyline
 [90] 0 sd
n 6375 4350 m
 6375 8850 l gs col0 s gr  [] 0 sd
% Polyline
 [90] 0 sd
n 6375 225 m
 6375 3750 l gs col0 s gr  [] 0 sd
/Times-Roman ff 210.00 scf sf
3375 4230 m
gs 1 -1 sc (Tool) dup sw pop 2 div neg 0 rm  col0 sh gr
/Times-Roman ff 210.00 scf sf
3375 3975 m
gs 1 -1 sc (FPGA Synthesis) dup sw pop 2 div neg 0 rm  col0 sh gr
/Times-Roman ff 210.00 scf sf
7875 3975 m
gs 1 -1 sc (C/C++ Compiler) dup sw pop 2 div neg 0 rm  col0 sh gr
/Times-Roman ff 210.00 scf sf
7875 4230 m
gs 1 -1 sc (for Processor) dup sw pop 2 div neg 0 rm  col0 sh gr
/Times-Italic ff 210.00 scf sf
7950 5775 m
gs 1 -1 sc (Binary) col0 sh gr
/Times-Italic ff 210.00 scf sf
7950 6000 m
gs 1 -1 sc (Program/) col0 sh gr
/Times-Italic ff 210.00 scf sf
7950 6225 m
gs 1 -1 sc (Data Files) col0 sh gr
/Times-Italic ff 210.00 scf sf
7875 2760 m
gs 1 -1 sc (Source Code) dup sw pop 2 div neg 0 rm  col0 sh gr
/Times-Italic ff 210.00 scf sf
7875 2505 m
gs 1 -1 sc (Application Program) dup sw pop 2 div neg 0 rm  col0 sh gr
/Times-Italic ff 210.00 scf sf
6225 4275 m
gs 1 -1 sc (Config. Data) dup sw pop 2 div neg 0 rm  col0 sh gr
/Times-Italic ff 210.00 scf sf
6300 3975 m
gs 1 -1 sc (Processor) dup sw pop 2 div neg 0 rm  col0 sh gr
/Times-Italic ff 210.00 scf sf
4650 3150 m
gs 1 -1 sc (HDL) col0 sh gr
/Times-Italic ff 210.00 scf sf
4500 3375 m
gs 1 -1 sc (or netlist) col0 sh gr
/Times-Italic ff 210.00 scf sf
1725 3150 m
gs 1 -1 sc (HDL) col0 sh gr
/Times-Italic ff 210.00 scf sf
1425 3375 m
gs 1 -1 sc (or schematic) col0 sh gr
/Times-Italic ff 210.00 scf sf
3450 5025 m
gs 1 -1 sc (Netlist) col0 sh gr
/Times-Italic ff 210.00 scf sf
4500 7650 m
gs 1 -1 sc (Processor) dup sw pop 2 div neg 0 rm  col0 sh gr
/Times-Italic ff 210.00 scf sf
4500 8250 m
gs 1 -1 sc (Memory) dup sw pop 2 div neg 0 rm  col0 sh gr
/Times-Italic ff 180.00 scf sf
3750 7875 m
gs 1 -1 sc  90.0 rot (User Logic) dup sw pop 2 div neg 0 rm  col0 sh gr
$F2psEnd
rs
