%!PS-Adobe-2.0 EPSF-2.0
%%Title: init_memory.eps
%%Creator: fig2dev Version 3.2 Patchlevel 3d
%%CreationDate: Thu Oct 16 13:05:43 2003
%%For: fpga@mosiah.ece.gatech.edu (FPGA)
%%BoundingBox: 0 0 380 217
%%Magnification: 1.0000
%%EndComments
/$F2psDict 200 dict def
$F2psDict begin
$F2psDict /mtrx matrix put
/col-1 {0 setgray} bind def
/col0 {0.000 0.000 0.000 srgb} bind def
/col1 {0.000 0.000 1.000 srgb} bind def
/col2 {0.000 1.000 0.000 srgb} bind def
/col3 {0.000 1.000 1.000 srgb} bind def
/col4 {1.000 0.000 0.000 srgb} bind def
/col5 {1.000 0.000 1.000 srgb} bind def
/col6 {1.000 1.000 0.000 srgb} bind def
/col7 {1.000 1.000 1.000 srgb} bind def
/col8 {0.000 0.000 0.560 srgb} bind def
/col9 {0.000 0.000 0.690 srgb} bind def
/col10 {0.000 0.000 0.820 srgb} bind def
/col11 {0.530 0.810 1.000 srgb} bind def
/col12 {0.000 0.560 0.000 srgb} bind def
/col13 {0.000 0.690 0.000 srgb} bind def
/col14 {0.000 0.820 0.000 srgb} bind def
/col15 {0.000 0.560 0.560 srgb} bind def
/col16 {0.000 0.690 0.690 srgb} bind def
/col17 {0.000 0.820 0.820 srgb} bind def
/col18 {0.560 0.000 0.000 srgb} bind def
/col19 {0.690 0.000 0.000 srgb} bind def
/col20 {0.820 0.000 0.000 srgb} bind def
/col21 {0.560 0.000 0.560 srgb} bind def
/col22 {0.690 0.000 0.690 srgb} bind def
/col23 {0.820 0.000 0.820 srgb} bind def
/col24 {0.500 0.190 0.000 srgb} bind def
/col25 {0.630 0.250 0.000 srgb} bind def
/col26 {0.750 0.380 0.000 srgb} bind def
/col27 {1.000 0.500 0.500 srgb} bind def
/col28 {1.000 0.630 0.630 srgb} bind def
/col29 {1.000 0.750 0.750 srgb} bind def
/col30 {1.000 0.880 0.880 srgb} bind def
/col31 {1.000 0.840 0.000 srgb} bind def

end
save
newpath 0 217 moveto 0 0 lineto 380 0 lineto 380 217 lineto closepath clip newpath
18.7 297.7 translate
1 -1 scale

/cp {closepath} bind def
/ef {eofill} bind def
/gr {grestore} bind def
/gs {gsave} bind def
/sa {save} bind def
/rs {restore} bind def
/l {lineto} bind def
/m {moveto} bind def
/rm {rmoveto} bind def
/n {newpath} bind def
/s {stroke} bind def
/sh {show} bind def
/slc {setlinecap} bind def
/slj {setlinejoin} bind def
/slw {setlinewidth} bind def
/srgb {setrgbcolor} bind def
/rot {rotate} bind def
/sc {scale} bind def
/sd {setdash} bind def
/ff {findfont} bind def
/sf {setfont} bind def
/scf {scalefont} bind def
/sw {stringwidth} bind def
/tr {translate} bind def
/tnt {dup dup currentrgbcolor
  4 -2 roll dup 1 exch sub 3 -1 roll mul add
  4 -2 roll dup 1 exch sub 3 -1 roll mul add
  4 -2 roll dup 1 exch sub 3 -1 roll mul add srgb}
  bind def
/shd {dup dup currentrgbcolor 4 -2 roll mul 4 -2 roll mul
  4 -2 roll mul srgb} bind def
/reencdict 12 dict def /ReEncode { reencdict begin
/newcodesandnames exch def /newfontname exch def /basefontname exch def
/basefontdict basefontname findfont def /newfont basefontdict maxlength dict def
basefontdict { exch dup /FID ne { dup /Encoding eq
{ exch dup length array copy newfont 3 1 roll put }
{ exch newfont 3 1 roll put } ifelse } { pop pop } ifelse } forall
newfont /FontName newfontname put newcodesandnames aload pop
128 1 255 { newfont /Encoding get exch /.notdef put } for
newcodesandnames length 2 idiv { newfont /Encoding get 3 1 roll put } repeat
newfontname newfont definefont pop end } def
/isovec [
8#055 /minus 8#200 /grave 8#201 /acute 8#202 /circumflex 8#203 /tilde
8#204 /macron 8#205 /breve 8#206 /dotaccent 8#207 /dieresis
8#210 /ring 8#211 /cedilla 8#212 /hungarumlaut 8#213 /ogonek 8#214 /caron
8#220 /dotlessi 8#230 /oe 8#231 /OE
8#240 /space 8#241 /exclamdown 8#242 /cent 8#243 /sterling
8#244 /currency 8#245 /yen 8#246 /brokenbar 8#247 /section 8#250 /dieresis
8#251 /copyright 8#252 /ordfeminine 8#253 /guillemotleft 8#254 /logicalnot
8#255 /hyphen 8#256 /registered 8#257 /macron 8#260 /degree 8#261 /plusminus
8#262 /twosuperior 8#263 /threesuperior 8#264 /acute 8#265 /mu 8#266 /paragraph
8#267 /periodcentered 8#270 /cedilla 8#271 /onesuperior 8#272 /ordmasculine
8#273 /guillemotright 8#274 /onequarter 8#275 /onehalf
8#276 /threequarters 8#277 /questiondown 8#300 /Agrave 8#301 /Aacute
8#302 /Acircumflex 8#303 /Atilde 8#304 /Adieresis 8#305 /Aring
8#306 /AE 8#307 /Ccedilla 8#310 /Egrave 8#311 /Eacute
8#312 /Ecircumflex 8#313 /Edieresis 8#314 /Igrave 8#315 /Iacute
8#316 /Icircumflex 8#317 /Idieresis 8#320 /Eth 8#321 /Ntilde 8#322 /Ograve
8#323 /Oacute 8#324 /Ocircumflex 8#325 /Otilde 8#326 /Odieresis 8#327 /multiply
8#330 /Oslash 8#331 /Ugrave 8#332 /Uacute 8#333 /Ucircumflex
8#334 /Udieresis 8#335 /Yacute 8#336 /Thorn 8#337 /germandbls 8#340 /agrave
8#341 /aacute 8#342 /acircumflex 8#343 /atilde 8#344 /adieresis 8#345 /aring
8#346 /ae 8#347 /ccedilla 8#350 /egrave 8#351 /eacute
8#352 /ecircumflex 8#353 /edieresis 8#354 /igrave 8#355 /iacute
8#356 /icircumflex 8#357 /idieresis 8#360 /eth 8#361 /ntilde 8#362 /ograve
8#363 /oacute 8#364 /ocircumflex 8#365 /otilde 8#366 /odieresis 8#367 /divide
8#370 /oslash 8#371 /ugrave 8#372 /uacute 8#373 /ucircumflex
8#374 /udieresis 8#375 /yacute 8#376 /thorn 8#377 /ydieresis] def
/Times-Bold /Times-Bold-iso isovec ReEncode
/Times-Italic /Times-Italic-iso isovec ReEncode
/$F2psBegin {$F2psDict begin /$F2psEnteredState save def} def
/$F2psEnd {$F2psEnteredState restore end} def

$F2psBegin
10 setmiterlimit
 0.06000 0.06000 sc
%
% Fig objects follow
%
% Polyline
45.000 slw
gs  clippath
2865 3480 m 2865 3420 l 2754 3420 l 2829 3450 l 2754 3480 l cp
1935 3195 m 1935 3255 l 2046 3255 l 1971 3225 l 2046 3195 l cp
eoclip
n 1950 3225 m 2550 3225 l 2550 3450 l
 2850 3450 l gs col0 s gr gr

% arrowhead
15.000 slw
n 2046 3195 m 1971 3225 l 2046 3255 l 2031 3225 l 2046 3195 l 
 cp gs 0.00 setgray ef gr  col0 s
% arrowhead
n 2754 3480 m 2829 3450 l 2754 3420 l 2769 3450 l 2754 3480 l 
 cp gs 0.00 setgray ef gr  col0 s
% Polyline
45.000 slw
gs  clippath
2865 4080 m 2865 4020 l 2754 4020 l 2829 4050 l 2754 4080 l cp
1935 4245 m 1935 4305 l 2046 4305 l 1971 4275 l 2046 4245 l cp
eoclip
n 1950 4275 m 2550 4275 l 2550 4050 l
 2850 4050 l gs col0 s gr gr

% arrowhead
15.000 slw
n 2046 4245 m 1971 4275 l 2046 4305 l 2031 4275 l 2046 4245 l 
 cp gs 0.00 setgray ef gr  col0 s
% arrowhead
n 2754 4080 m 2829 4050 l 2754 4020 l 2769 4050 l 2754 4080 l 
 cp gs 0.00 setgray ef gr  col0 s
% Polyline
45.000 slw
gs  clippath
4365 3780 m 4365 3720 l 4254 3720 l 4329 3750 l 4254 3780 l cp
3885 3720 m 3885 3780 l 3996 3780 l 3921 3750 l 3996 3720 l cp
eoclip
n 3900 3750 m 4125 3750 l 4200 3750 l 4275 3750 l
 4350 3750 l gs col0 s gr gr

% arrowhead
15.000 slw
n 3996 3720 m 3921 3750 l 3996 3780 l 3981 3750 l 3996 3720 l 
 cp gs 0.00 setgray ef gr  col0 s
% arrowhead
n 4254 3780 m 4329 3750 l 4254 3720 l 4269 3750 l 4254 3780 l 
 cp gs 0.00 setgray ef gr  col0 s
% Polyline
7.500 slw
n -300 3900 m 1950 3900 l 1950 4650 l -300 4650 l
 cp gs col0 s gr 
% Polyline
n -300 2850 m 1950 2850 l 1950 3600 l -300 3600 l
 cp gs col0 s gr 
% Polyline
n 2850 3000 m 3900 3000 l 3900 4500 l 2850 4500 l
 cp gs col0 s gr 
% Polyline
45.000 slw
gs  clippath
3405 1785 m 3345 1785 l 3345 1896 l 3375 1821 l 3405 1896 l cp
3345 3015 m 3405 3015 l 3405 2904 l 3375 2979 l 3345 2904 l cp
eoclip
n 3375 3000 m
 3375 1800 l gs col0 s gr gr

% arrowhead
15.000 slw
n 3345 2904 m 3375 2979 l 3405 2904 l 3375 2919 l 3345 2904 l 
 cp gs 0.00 setgray ef gr  col0 s
% arrowhead
n 3405 1896 m 3375 1821 l 3345 1896 l 3375 1881 l 3405 1896 l 
 cp gs 0.00 setgray ef gr  col0 s
% Polyline
7.500 slw
n 2400 2550 m 6000 2550 l 6000 4950 l 2400 4950 l
 cp gs col0 s gr 
% Polyline
n 4350 3300 m 5850 3300 l 5850 4200 l 4350 4200 l
 cp gs col0 s gr 
/Times-Bold-iso ff 210.00 scf sf
2475 2775 m
gs 1 -1 sc (FPGA) col0 sh gr
/Times-Bold-iso ff 210.00 scf sf
825 4125 m
gs 1 -1 sc (Non-volatile Memory) dup sw pop 2 div neg 0 rm  col0 sh gr
/Times-Italic-iso ff 180.00 scf sf
825 4350 m
gs 1 -1 sc (\(for Application) dup sw pop 2 div neg 0 rm  col0 sh gr
/Times-Italic-iso ff 180.00 scf sf
825 4575 m
gs 1 -1 sc (Program Storage\)) dup sw pop 2 div neg 0 rm  col0 sh gr
/Times-Italic-iso ff 180.00 scf sf
825 3300 m
gs 1 -1 sc (\(for Application) dup sw pop 2 div neg 0 rm  col0 sh gr
/Times-Italic-iso ff 180.00 scf sf
825 3525 m
gs 1 -1 sc (Program Execution\)) dup sw pop 2 div neg 0 rm  col0 sh gr
/Times-Bold-iso ff 210.00 scf sf
3375 1500 m
gs 1 -1 sc (To PC) dup sw pop 2 div neg 0 rm  col0 sh gr
/Times-Bold-iso ff 210.00 scf sf
825 3075 m
gs 1 -1 sc (Volatile Memory) dup sw pop 2 div neg 0 rm  col0 sh gr
/Times-Bold-iso ff 210.00 scf sf
5100 3525 m
gs 1 -1 sc (On-chip) dup sw pop 2 div neg 0 rm  col0 sh gr
/Times-Bold-iso ff 210.00 scf sf
5100 3750 m
gs 1 -1 sc (Memory) dup sw pop 2 div neg 0 rm  col0 sh gr
/Times-Italic-iso ff 180.00 scf sf
5100 3975 m
gs 1 -1 sc (\(initialized with) dup sw pop 2 div neg 0 rm  col0 sh gr
/Times-Italic-iso ff 180.00 scf sf
5100 4125 m
gs 1 -1 sc (bootloader\)) dup sw pop 2 div neg 0 rm  col0 sh gr
/Times-Bold-iso ff 210.00 scf sf
3375 3600 m
gs 1 -1 sc (Processor) dup sw pop 2 div neg 0 rm  col0 sh gr
/Times-Bold-iso ff 210.00 scf sf
3375 3900 m
gs 1 -1 sc (Core) dup sw pop 2 div neg 0 rm  col0 sh gr
/Times-Italic-iso ff 180.00 scf sf
3375 1725 m
gs 1 -1 sc (via Serial Interface) dup sw pop 2 div neg 0 rm  col0 sh gr
$F2psEnd
rs
